%YAML 1.1
%TAG !u! tag:unity3d.com,2011:
--- !u!29 &1
OcclusionCullingSettings:
  m_ObjectHideFlags: 0
  serializedVersion: 2
  m_OcclusionBakeSettings:
    smallestOccluder: 5
    smallestHole: 0.25
    backfaceThreshold: 100
  m_SceneGUID: 00000000000000000000000000000000
  m_OcclusionCullingData: {fileID: 0}
--- !u!104 &2
RenderSettings:
  m_ObjectHideFlags: 0
  serializedVersion: 9
  m_Fog: 0
  m_FogColor: {r: 0.5, g: 0.5, b: 0.5, a: 1}
  m_FogMode: 3
  m_FogDensity: 0.01
  m_LinearFogStart: 0
  m_LinearFogEnd: 300
  m_AmbientSkyColor: {r: 0.106, g: 0.1135, b: 0.1295, a: 0.5}
  m_AmbientEquatorColor: {r: 0.057, g: 0.0625, b: 0.0665, a: 0.5}
  m_AmbientGroundColor: {r: 0.0235, g: 0.0215, b: 0.0175, a: 0.5}
  m_AmbientIntensity: 0.5
  m_AmbientMode: 0
  m_SubtractiveShadowColor: {r: 0.42, g: 0.478, b: 0.627, a: 1}
  m_SkyboxMaterial: {fileID: 2100000, guid: bac19cf49c124754196012f08c123f34, type: 2}
  m_HaloStrength: 0.5
  m_FlareStrength: 1
  m_FlareFadeSpeed: 3
  m_HaloTexture: {fileID: 0}
  m_SpotCookie: {fileID: 10001, guid: 0000000000000000e000000000000000, type: 0}
  m_DefaultReflectionMode: 1
  m_DefaultReflectionResolution: 128
  m_ReflectionBounces: 1
  m_ReflectionIntensity: 0.5
  m_CustomReflection: {fileID: 8900000, guid: bab875665efdd084bbf5606dd306cf8c, type: 3}
  m_Sun: {fileID: 0}
  m_IndirectSpecularColor: {r: 0.67433935, g: 0.62820464, b: 0.583187, a: 0.5}
  m_UseRadianceAmbientProbe: 0
--- !u!157 &4
LightmapSettings:
  m_ObjectHideFlags: 0
  serializedVersion: 12
  m_GIWorkflowMode: 1
  m_GISettings:
    serializedVersion: 2
    m_BounceScale: 1
    m_IndirectOutputScale: 1
    m_AlbedoBoost: 1
    m_EnvironmentLightingMode: 0
    m_EnableBakedLightmaps: 1
    m_EnableRealtimeLightmaps: 1
  m_LightmapEditorSettings:
    serializedVersion: 12
    m_Resolution: 2
    m_BakeResolution: 64
    m_AtlasSize: 1024
    m_AO: 0
    m_AOMaxDistance: 1
    m_CompAOExponent: 0
    m_CompAOExponentDirect: 0
    m_ExtractAmbientOcclusion: 0
    m_Padding: 2
    m_LightmapParameters: {fileID: 0}
    m_LightmapsBakeMode: 1
    m_TextureCompression: 1
    m_FinalGather: 0
    m_FinalGatherFiltering: 1
    m_FinalGatherRayCount: 1024
    m_ReflectionCompression: 2
    m_MixedBakeMode: 1
    m_BakeBackend: 0
    m_PVRSampling: 1
    m_PVRDirectSampleCount: 32
    m_PVRSampleCount: 512
    m_PVRBounces: 2
    m_PVREnvironmentSampleCount: 512
    m_PVREnvironmentReferencePointCount: 2048
    m_PVRFilteringMode: 0
    m_PVRDenoiserTypeDirect: 0
    m_PVRDenoiserTypeIndirect: 0
    m_PVRDenoiserTypeAO: 0
    m_PVRFilterTypeDirect: 0
    m_PVRFilterTypeIndirect: 0
    m_PVRFilterTypeAO: 0
    m_PVREnvironmentMIS: 0
    m_PVRCulling: 1
    m_PVRFilteringGaussRadiusDirect: 1
    m_PVRFilteringGaussRadiusIndirect: 5
    m_PVRFilteringGaussRadiusAO: 2
    m_PVRFilteringAtrousPositionSigmaDirect: 0.5
    m_PVRFilteringAtrousPositionSigmaIndirect: 2
    m_PVRFilteringAtrousPositionSigmaAO: 1
    m_ExportTrainingData: 0
    m_TrainingDataDestination: TrainingData
    m_LightProbeSampleCountMultiplier: 4
  m_LightingDataAsset: {fileID: 112000000, guid: 9c290bf2aac59424cb2cc545d4c8cb19, type: 2}
  m_LightingSettings: {fileID: 4890085278179872738, guid: ce9a1356e8bca0a449b6fafd9d502999, type: 2}
--- !u!196 &5
NavMeshSettings:
  serializedVersion: 2
  m_ObjectHideFlags: 0
  m_BuildSettings:
    serializedVersion: 2
    agentTypeID: 0
    agentRadius: 0.5
    agentHeight: 2
    agentSlope: 45
    agentClimb: 0.4
    ledgeDropHeight: 0
    maxJumpAcrossDistance: 0
    minRegionArea: 2
    manualCellSize: 0
    cellSize: 0.16666667
    manualTileSize: 0
    tileSize: 256
    accuratePlacement: 0
    maxJobWorkers: 0
    preserveTilesOutsideBounds: 0
    debug:
      m_Flags: 0
  m_NavMeshData: {fileID: 0}
--- !u!1001 &165659578
PrefabInstance:
  m_ObjectHideFlags: 0
  serializedVersion: 2
  m_Modification:
    m_TransformParent: {fileID: 1075876286}
    m_Modifications:
    - target: {fileID: 114716, guid: bb7975b4ee3bc3f40b9b2faf7e4636a2, type: 3}
      propertyPath: m_Name
      value: rock_k (1)
      objectReference: {fileID: 0}
    - target: {fileID: 436498, guid: bb7975b4ee3bc3f40b9b2faf7e4636a2, type: 3}
      propertyPath: m_LocalPosition.x
      value: 1.67400002
      objectReference: {fileID: 0}
    - target: {fileID: 436498, guid: bb7975b4ee3bc3f40b9b2faf7e4636a2, type: 3}
      propertyPath: m_LocalPosition.y
      value: .00100000005
      objectReference: {fileID: 0}
    - target: {fileID: 436498, guid: bb7975b4ee3bc3f40b9b2faf7e4636a2, type: 3}
      propertyPath: m_LocalPosition.z
      value: .619719982
      objectReference: {fileID: 0}
    - target: {fileID: 436498, guid: bb7975b4ee3bc3f40b9b2faf7e4636a2, type: 3}
      propertyPath: m_LocalRotation.x
      value: 0
      objectReference: {fileID: 0}
    - target: {fileID: 436498, guid: bb7975b4ee3bc3f40b9b2faf7e4636a2, type: 3}
      propertyPath: m_LocalRotation.y
      value: .136054128
      objectReference: {fileID: 0}
    - target: {fileID: 436498, guid: bb7975b4ee3bc3f40b9b2faf7e4636a2, type: 3}
      propertyPath: m_LocalRotation.z
      value: 0
      objectReference: {fileID: 0}
    - target: {fileID: 436498, guid: bb7975b4ee3bc3f40b9b2faf7e4636a2, type: 3}
      propertyPath: m_LocalRotation.w
      value: -.990701437
      objectReference: {fileID: 0}
    - target: {fileID: 436498, guid: bb7975b4ee3bc3f40b9b2faf7e4636a2, type: 3}
      propertyPath: m_RootOrder
      value: 8
      objectReference: {fileID: 0}
    - target: {fileID: 436498, guid: bb7975b4ee3bc3f40b9b2faf7e4636a2, type: 3}
      propertyPath: m_LocalScale.z
      value: 1.1661216
      objectReference: {fileID: 0}
    m_RemovedComponents: []
  m_SourcePrefab: {fileID: 100100000, guid: bb7975b4ee3bc3f40b9b2faf7e4636a2, type: 3}
--- !u!4 &165659579 stripped
Transform:
  m_CorrespondingSourceObject: {fileID: 436498, guid: bb7975b4ee3bc3f40b9b2faf7e4636a2, type: 3}
  m_PrefabInstance: {fileID: 165659578}
  m_PrefabAsset: {fileID: 0}
--- !u!1001 &189451058
PrefabInstance:
  m_ObjectHideFlags: 0
  serializedVersion: 2
  m_Modification:
    m_TransformParent: {fileID: 1075876286}
    m_Modifications:
    - target: {fileID: 436498, guid: bb7975b4ee3bc3f40b9b2faf7e4636a2, type: 3}
      propertyPath: m_LocalPosition.x
      value: 1.86099994
      objectReference: {fileID: 0}
    - target: {fileID: 436498, guid: bb7975b4ee3bc3f40b9b2faf7e4636a2, type: 3}
      propertyPath: m_LocalPosition.y
      value: .513000011
      objectReference: {fileID: 0}
    - target: {fileID: 436498, guid: bb7975b4ee3bc3f40b9b2faf7e4636a2, type: 3}
      propertyPath: m_LocalPosition.z
      value: -.551060021
      objectReference: {fileID: 0}
    - target: {fileID: 436498, guid: bb7975b4ee3bc3f40b9b2faf7e4636a2, type: 3}
      propertyPath: m_LocalRotation.x
      value: 0
      objectReference: {fileID: 0}
    - target: {fileID: 436498, guid: bb7975b4ee3bc3f40b9b2faf7e4636a2, type: 3}
      propertyPath: m_LocalRotation.y
      value: -.560433924
      objectReference: {fileID: 0}
    - target: {fileID: 436498, guid: bb7975b4ee3bc3f40b9b2faf7e4636a2, type: 3}
      propertyPath: m_LocalRotation.z
      value: 0
      objectReference: {fileID: 0}
    - target: {fileID: 436498, guid: bb7975b4ee3bc3f40b9b2faf7e4636a2, type: 3}
      propertyPath: m_LocalRotation.w
      value: -.828199148
      objectReference: {fileID: 0}
    - target: {fileID: 436498, guid: bb7975b4ee3bc3f40b9b2faf7e4636a2, type: 3}
      propertyPath: m_RootOrder
      value: 4
      objectReference: {fileID: 0}
    - target: {fileID: 436498, guid: bb7975b4ee3bc3f40b9b2faf7e4636a2, type: 3}
      propertyPath: m_LocalScale.z
      value: 1.00000048
      objectReference: {fileID: 0}
    - target: {fileID: 436498, guid: bb7975b4ee3bc3f40b9b2faf7e4636a2, type: 3}
      propertyPath: m_LocalScale.x
      value: 1.1661216
      objectReference: {fileID: 0}
    m_RemovedComponents: []
  m_SourcePrefab: {fileID: 100100000, guid: bb7975b4ee3bc3f40b9b2faf7e4636a2, type: 3}
--- !u!4 &189451059 stripped
Transform:
  m_CorrespondingSourceObject: {fileID: 436498, guid: bb7975b4ee3bc3f40b9b2faf7e4636a2, type: 3}
  m_PrefabInstance: {fileID: 189451058}
  m_PrefabAsset: {fileID: 0}
--- !u!1001 &220698030
PrefabInstance:
  m_ObjectHideFlags: 0
  serializedVersion: 2
  m_Modification:
    m_TransformParent: {fileID: 1075876286}
    m_Modifications:
    - target: {fileID: 179510, guid: bee8d047e16101c438fb33382ab66935, type: 3}
      propertyPath: m_Name
      value: rock_e (2)
      objectReference: {fileID: 0}
    - target: {fileID: 416522, guid: bee8d047e16101c438fb33382ab66935, type: 3}
      propertyPath: m_LocalPosition.x
      value: 3.14299989
      objectReference: {fileID: 0}
    - target: {fileID: 416522, guid: bee8d047e16101c438fb33382ab66935, type: 3}
      propertyPath: m_LocalPosition.y
      value: 1.852
      objectReference: {fileID: 0}
    - target: {fileID: 416522, guid: bee8d047e16101c438fb33382ab66935, type: 3}
      propertyPath: m_LocalPosition.z
      value: .646000028
      objectReference: {fileID: 0}
    - target: {fileID: 416522, guid: bee8d047e16101c438fb33382ab66935, type: 3}
      propertyPath: m_LocalRotation.x
      value: 0
      objectReference: {fileID: 0}
    - target: {fileID: 416522, guid: bee8d047e16101c438fb33382ab66935, type: 3}
      propertyPath: m_LocalRotation.y
      value: -.109387591
      objectReference: {fileID: 0}
    - target: {fileID: 416522, guid: bee8d047e16101c438fb33382ab66935, type: 3}
      propertyPath: m_LocalRotation.z
      value: 0
      objectReference: {fileID: 0}
    - target: {fileID: 416522, guid: bee8d047e16101c438fb33382ab66935, type: 3}
      propertyPath: m_LocalRotation.w
      value: -.993999183
      objectReference: {fileID: 0}
    - target: {fileID: 416522, guid: bee8d047e16101c438fb33382ab66935, type: 3}
      propertyPath: m_RootOrder
      value: 12
      objectReference: {fileID: 0}
    m_RemovedComponents: []
  m_SourcePrefab: {fileID: 100100000, guid: bee8d047e16101c438fb33382ab66935, type: 3}
--- !u!4 &220698031 stripped
Transform:
  m_CorrespondingSourceObject: {fileID: 416522, guid: bee8d047e16101c438fb33382ab66935, type: 3}
  m_PrefabInstance: {fileID: 220698030}
  m_PrefabAsset: {fileID: 0}
--- !u!1001 &322624550
PrefabInstance:
  m_ObjectHideFlags: 0
  serializedVersion: 2
  m_Modification:
    m_TransformParent: {fileID: 1075876286}
    m_Modifications:
    - target: {fileID: 103450, guid: 4436f5b141ae4074082424c09570acb3, type: 3}
      propertyPath: m_Name
      value: rock_b (1)
      objectReference: {fileID: 0}
    - target: {fileID: 440648, guid: 4436f5b141ae4074082424c09570acb3, type: 3}
      propertyPath: m_LocalPosition.x
      value: 3.08999991
      objectReference: {fileID: 0}
    - target: {fileID: 440648, guid: 4436f5b141ae4074082424c09570acb3, type: 3}
      propertyPath: m_LocalPosition.y
      value: 1.97000003
      objectReference: {fileID: 0}
    - target: {fileID: 440648, guid: 4436f5b141ae4074082424c09570acb3, type: 3}
      propertyPath: m_LocalPosition.z
      value: -1.00999999
      objectReference: {fileID: 0}
    - target: {fileID: 440648, guid: 4436f5b141ae4074082424c09570acb3, type: 3}
      propertyPath: m_LocalRotation.x
      value: 0
      objectReference: {fileID: 0}
    - target: {fileID: 440648, guid: 4436f5b141ae4074082424c09570acb3, type: 3}
      propertyPath: m_LocalRotation.y
      value: -.64348489
      objectReference: {fileID: 0}
    - target: {fileID: 440648, guid: 4436f5b141ae4074082424c09570acb3, type: 3}
      propertyPath: m_LocalRotation.z
      value: 0
      objectReference: {fileID: 0}
    - target: {fileID: 440648, guid: 4436f5b141ae4074082424c09570acb3, type: 3}
      propertyPath: m_LocalRotation.w
      value: -.765458882
      objectReference: {fileID: 0}
    - target: {fileID: 440648, guid: 4436f5b141ae4074082424c09570acb3, type: 3}
      propertyPath: m_RootOrder
      value: 14
      objectReference: {fileID: 0}
    - target: {fileID: 440648, guid: 4436f5b141ae4074082424c09570acb3, type: 3}
      propertyPath: m_LocalScale.x
      value: .727075934
      objectReference: {fileID: 0}
    - target: {fileID: 440648, guid: 4436f5b141ae4074082424c09570acb3, type: 3}
      propertyPath: m_LocalScale.y
      value: 1.02998793
      objectReference: {fileID: 0}
    - target: {fileID: 440648, guid: 4436f5b141ae4074082424c09570acb3, type: 3}
      propertyPath: m_LocalScale.z
      value: .727075934
      objectReference: {fileID: 0}
    m_RemovedComponents: []
  m_SourcePrefab: {fileID: 100100000, guid: 4436f5b141ae4074082424c09570acb3, type: 3}
--- !u!4 &322624551 stripped
Transform:
  m_CorrespondingSourceObject: {fileID: 440648, guid: 4436f5b141ae4074082424c09570acb3, type: 3}
  m_PrefabInstance: {fileID: 322624550}
  m_PrefabAsset: {fileID: 0}
--- !u!1001 &347600057
PrefabInstance:
  m_ObjectHideFlags: 0
  serializedVersion: 2
  m_Modification:
    m_TransformParent: {fileID: 1075876286}
    m_Modifications:
    - target: {fileID: 437022, guid: de863afb481be364ea04e5a347f5967f, type: 3}
      propertyPath: m_LocalPosition.x
      value: 1.45799994
      objectReference: {fileID: 0}
    - target: {fileID: 437022, guid: de863afb481be364ea04e5a347f5967f, type: 3}
      propertyPath: m_LocalPosition.y
      value: 0
      objectReference: {fileID: 0}
    - target: {fileID: 437022, guid: de863afb481be364ea04e5a347f5967f, type: 3}
      propertyPath: m_LocalPosition.z
      value: 1.67739999
      objectReference: {fileID: 0}
    - target: {fileID: 437022, guid: de863afb481be364ea04e5a347f5967f, type: 3}
      propertyPath: m_LocalRotation.x
      value: 0
      objectReference: {fileID: 0}
    - target: {fileID: 437022, guid: de863afb481be364ea04e5a347f5967f, type: 3}
      propertyPath: m_LocalRotation.y
      value: -.937579811
      objectReference: {fileID: 0}
    - target: {fileID: 437022, guid: de863afb481be364ea04e5a347f5967f, type: 3}
      propertyPath: m_LocalRotation.z
      value: 0
      objectReference: {fileID: 0}
    - target: {fileID: 437022, guid: de863afb481be364ea04e5a347f5967f, type: 3}
      propertyPath: m_LocalRotation.w
      value: -.347770303
      objectReference: {fileID: 0}
    - target: {fileID: 437022, guid: de863afb481be364ea04e5a347f5967f, type: 3}
      propertyPath: m_RootOrder
      value: 0
      objectReference: {fileID: 0}
    - target: {fileID: 437022, guid: de863afb481be364ea04e5a347f5967f, type: 3}
      propertyPath: m_LocalScale.z
      value: 1.1661216
      objectReference: {fileID: 0}
    m_RemovedComponents: []
  m_SourcePrefab: {fileID: 100100000, guid: de863afb481be364ea04e5a347f5967f, type: 3}
--- !u!4 &347600058 stripped
Transform:
  m_CorrespondingSourceObject: {fileID: 437022, guid: de863afb481be364ea04e5a347f5967f, type: 3}
  m_PrefabInstance: {fileID: 347600057}
  m_PrefabAsset: {fileID: 0}
--- !u!1001 &359757806
PrefabInstance:
  m_ObjectHideFlags: 0
  serializedVersion: 2
  m_Modification:
    m_TransformParent: {fileID: 1603946219}
    m_Modifications:
    - target: {fileID: 400000, guid: 4c036fbba801f0645a68fba332358ddd, type: 3}
      propertyPath: m_LocalPosition.x
      value: 0
      objectReference: {fileID: 0}
    - target: {fileID: 400000, guid: 4c036fbba801f0645a68fba332358ddd, type: 3}
      propertyPath: m_LocalPosition.y
      value: 0
      objectReference: {fileID: 0}
    - target: {fileID: 400000, guid: 4c036fbba801f0645a68fba332358ddd, type: 3}
      propertyPath: m_LocalPosition.z
      value: 0
      objectReference: {fileID: 0}
    - target: {fileID: 400000, guid: 4c036fbba801f0645a68fba332358ddd, type: 3}
      propertyPath: m_LocalRotation.x
      value: 0
      objectReference: {fileID: 0}
    - target: {fileID: 400000, guid: 4c036fbba801f0645a68fba332358ddd, type: 3}
      propertyPath: m_LocalRotation.y
      value: 0
      objectReference: {fileID: 0}
    - target: {fileID: 400000, guid: 4c036fbba801f0645a68fba332358ddd, type: 3}
      propertyPath: m_LocalRotation.z
      value: 0
      objectReference: {fileID: 0}
    - target: {fileID: 400000, guid: 4c036fbba801f0645a68fba332358ddd, type: 3}
      propertyPath: m_LocalRotation.w
      value: 1
      objectReference: {fileID: 0}
    - target: {fileID: 400000, guid: 4c036fbba801f0645a68fba332358ddd, type: 3}
      propertyPath: m_RootOrder
      value: 1
      objectReference: {fileID: 0}
    - target: {fileID: 2300000, guid: 4c036fbba801f0645a68fba332358ddd, type: 3}
      propertyPath: m_Materials.Array.data[0]
      value: 
      objectReference: {fileID: 2100000, guid: 3e9f0db9ec9f43b48be4e019a749f8be, type: 2}
    m_RemovedComponents: []
  m_SourcePrefab: {fileID: 100100000, guid: 4c036fbba801f0645a68fba332358ddd, type: 3}
--- !u!4 &359757807 stripped
Transform:
  m_CorrespondingSourceObject: {fileID: 400000, guid: 4c036fbba801f0645a68fba332358ddd, type: 3}
  m_PrefabInstance: {fileID: 359757806}
  m_PrefabAsset: {fileID: 0}
--- !u!1001 &451578328
PrefabInstance:
  m_ObjectHideFlags: 0
  serializedVersion: 2
  m_Modification:
    m_TransformParent: {fileID: 1075876286}
    m_Modifications:
    - target: {fileID: 499504, guid: 5c5d6555d9ad54d49a4654c80774e668, type: 3}
      propertyPath: m_LocalPosition.x
      value: 2.01600003
      objectReference: {fileID: 0}
    - target: {fileID: 499504, guid: 5c5d6555d9ad54d49a4654c80774e668, type: 3}
      propertyPath: m_LocalPosition.y
      value: .986000001
      objectReference: {fileID: 0}
    - target: {fileID: 499504, guid: 5c5d6555d9ad54d49a4654c80774e668, type: 3}
      propertyPath: m_LocalPosition.z
      value: 1.66690004
      objectReference: {fileID: 0}
    - target: {fileID: 499504, guid: 5c5d6555d9ad54d49a4654c80774e668, type: 3}
      propertyPath: m_LocalRotation.x
      value: 0
      objectReference: {fileID: 0}
    - target: {fileID: 499504, guid: 5c5d6555d9ad54d49a4654c80774e668, type: 3}
      propertyPath: m_LocalRotation.y
      value: -.904099524
      objectReference: {fileID: 0}
    - target: {fileID: 499504, guid: 5c5d6555d9ad54d49a4654c80774e668, type: 3}
      propertyPath: m_LocalRotation.z
      value: 0
      objectReference: {fileID: 0}
    - target: {fileID: 499504, guid: 5c5d6555d9ad54d49a4654c80774e668, type: 3}
      propertyPath: m_LocalRotation.w
      value: -.427322
      objectReference: {fileID: 0}
    - target: {fileID: 499504, guid: 5c5d6555d9ad54d49a4654c80774e668, type: 3}
      propertyPath: m_RootOrder
      value: 7
      objectReference: {fileID: 0}
    - target: {fileID: 499504, guid: 5c5d6555d9ad54d49a4654c80774e668, type: 3}
      propertyPath: m_LocalScale.z
      value: 1.1661216
      objectReference: {fileID: 0}
    m_RemovedComponents: []
  m_SourcePrefab: {fileID: 100100000, guid: 5c5d6555d9ad54d49a4654c80774e668, type: 3}
--- !u!4 &451578329 stripped
Transform:
  m_CorrespondingSourceObject: {fileID: 499504, guid: 5c5d6555d9ad54d49a4654c80774e668, type: 3}
  m_PrefabInstance: {fileID: 451578328}
  m_PrefabAsset: {fileID: 0}
--- !u!1001 &634951904
PrefabInstance:
  m_ObjectHideFlags: 0
  serializedVersion: 2
  m_Modification:
    m_TransformParent: {fileID: 1075876286}
    m_Modifications:
    - target: {fileID: 493472, guid: ca5c291357dc8c54bbb0f485cdccdf17, type: 3}
      propertyPath: m_LocalPosition.x
      value: 2.17700005
      objectReference: {fileID: 0}
    - target: {fileID: 493472, guid: ca5c291357dc8c54bbb0f485cdccdf17, type: 3}
      propertyPath: m_LocalPosition.y
      value: 0
      objectReference: {fileID: 0}
    - target: {fileID: 493472, guid: ca5c291357dc8c54bbb0f485cdccdf17, type: 3}
      propertyPath: m_LocalPosition.z
      value: -.0869449973
      objectReference: {fileID: 0}
    - target: {fileID: 493472, guid: ca5c291357dc8c54bbb0f485cdccdf17, type: 3}
      propertyPath: m_LocalRotation.x
      value: 0
      objectReference: {fileID: 0}
    - target: {fileID: 493472, guid: ca5c291357dc8c54bbb0f485cdccdf17, type: 3}
      propertyPath: m_LocalRotation.y
      value: -.575062215
      objectReference: {fileID: 0}
    - target: {fileID: 493472, guid: ca5c291357dc8c54bbb0f485cdccdf17, type: 3}
      propertyPath: m_LocalRotation.z
      value: 0
      objectReference: {fileID: 0}
    - target: {fileID: 493472, guid: ca5c291357dc8c54bbb0f485cdccdf17, type: 3}
      propertyPath: m_LocalRotation.w
      value: -.818109691
      objectReference: {fileID: 0}
    - target: {fileID: 493472, guid: ca5c291357dc8c54bbb0f485cdccdf17, type: 3}
      propertyPath: m_RootOrder
      value: 1
      objectReference: {fileID: 0}
    - target: {fileID: 493472, guid: ca5c291357dc8c54bbb0f485cdccdf17, type: 3}
      propertyPath: m_LocalScale.x
      value: 1.31112468
      objectReference: {fileID: 0}
    - target: {fileID: 493472, guid: ca5c291357dc8c54bbb0f485cdccdf17, type: 3}
      propertyPath: m_LocalScale.y
      value: 1.12434649
      objectReference: {fileID: 0}
    - target: {fileID: 493472, guid: ca5c291357dc8c54bbb0f485cdccdf17, type: 3}
      propertyPath: m_LocalScale.z
      value: 1.12434697
      objectReference: {fileID: 0}
    m_RemovedComponents: []
  m_SourcePrefab: {fileID: 100100000, guid: ca5c291357dc8c54bbb0f485cdccdf17, type: 3}
--- !u!4 &634951905 stripped
Transform:
  m_CorrespondingSourceObject: {fileID: 493472, guid: ca5c291357dc8c54bbb0f485cdccdf17, type: 3}
  m_PrefabInstance: {fileID: 634951904}
  m_PrefabAsset: {fileID: 0}
--- !u!1001 &752245349
PrefabInstance:
  m_ObjectHideFlags: 0
  serializedVersion: 2
  m_Modification:
    m_TransformParent: {fileID: 1075876286}
    m_Modifications:
    - target: {fileID: 416522, guid: bee8d047e16101c438fb33382ab66935, type: 3}
      propertyPath: m_LocalPosition.x
      value: 1.47800004
      objectReference: {fileID: 0}
    - target: {fileID: 416522, guid: bee8d047e16101c438fb33382ab66935, type: 3}
      propertyPath: m_LocalPosition.y
      value: 0
      objectReference: {fileID: 0}
    - target: {fileID: 416522, guid: bee8d047e16101c438fb33382ab66935, type: 3}
      propertyPath: m_LocalPosition.z
      value: -.959200025
      objectReference: {fileID: 0}
    - target: {fileID: 416522, guid: bee8d047e16101c438fb33382ab66935, type: 3}
      propertyPath: m_LocalRotation.x
      value: 0
      objectReference: {fileID: 0}
    - target: {fileID: 416522, guid: bee8d047e16101c438fb33382ab66935, type: 3}
      propertyPath: m_LocalRotation.y
      value: -.61278671
      objectReference: {fileID: 0}
    - target: {fileID: 416522, guid: bee8d047e16101c438fb33382ab66935, type: 3}
      propertyPath: m_LocalRotation.z
      value: 0
      objectReference: {fileID: 0}
    - target: {fileID: 416522, guid: bee8d047e16101c438fb33382ab66935, type: 3}
      propertyPath: m_LocalRotation.w
      value: -.790248394
      objectReference: {fileID: 0}
    - target: {fileID: 416522, guid: bee8d047e16101c438fb33382ab66935, type: 3}
      propertyPath: m_RootOrder
      value: 3
      objectReference: {fileID: 0}
    - target: {fileID: 416522, guid: bee8d047e16101c438fb33382ab66935, type: 3}
      propertyPath: m_LocalScale.x
      value: 1.1661216
      objectReference: {fileID: 0}
    - target: {fileID: 416522, guid: bee8d047e16101c438fb33382ab66935, type: 3}
      propertyPath: m_LocalScale.z
      value: 1.00000048
      objectReference: {fileID: 0}
    m_RemovedComponents: []
  m_SourcePrefab: {fileID: 100100000, guid: bee8d047e16101c438fb33382ab66935, type: 3}
--- !u!4 &752245350 stripped
Transform:
  m_CorrespondingSourceObject: {fileID: 416522, guid: bee8d047e16101c438fb33382ab66935, type: 3}
  m_PrefabInstance: {fileID: 752245349}
  m_PrefabAsset: {fileID: 0}
--- !u!1001 &847535059
PrefabInstance:
  m_ObjectHideFlags: 0
  serializedVersion: 2
  m_Modification:
    m_TransformParent: {fileID: 1075876286}
    m_Modifications:
    - target: {fileID: 179510, guid: bee8d047e16101c438fb33382ab66935, type: 3}
      propertyPath: m_Name
      value: rock_e (1)
      objectReference: {fileID: 0}
    - target: {fileID: 416522, guid: bee8d047e16101c438fb33382ab66935, type: 3}
      propertyPath: m_LocalPosition.x
      value: 2.21499991
      objectReference: {fileID: 0}
    - target: {fileID: 416522, guid: bee8d047e16101c438fb33382ab66935, type: 3}
      propertyPath: m_LocalPosition.y
      value: 1.83800006
      objectReference: {fileID: 0}
    - target: {fileID: 416522, guid: bee8d047e16101c438fb33382ab66935, type: 3}
      propertyPath: m_LocalPosition.z
      value: -1.03499997
      objectReference: {fileID: 0}
    - target: {fileID: 416522, guid: bee8d047e16101c438fb33382ab66935, type: 3}
      propertyPath: m_LocalRotation.x
      value: 0
      objectReference: {fileID: 0}
    - target: {fileID: 416522, guid: bee8d047e16101c438fb33382ab66935, type: 3}
      propertyPath: m_LocalRotation.y
      value: -.990103722
      objectReference: {fileID: 0}
    - target: {fileID: 416522, guid: bee8d047e16101c438fb33382ab66935, type: 3}
      propertyPath: m_LocalRotation.z
      value: 0
      objectReference: {fileID: 0}
    - target: {fileID: 416522, guid: bee8d047e16101c438fb33382ab66935, type: 3}
      propertyPath: m_LocalRotation.w
      value: .14033784
      objectReference: {fileID: 0}
    - target: {fileID: 416522, guid: bee8d047e16101c438fb33382ab66935, type: 3}
      propertyPath: m_RootOrder
      value: 6
      objectReference: {fileID: 0}
    - target: {fileID: 416522, guid: bee8d047e16101c438fb33382ab66935, type: 3}
      propertyPath: m_LocalScale.x
      value: .542296767
      objectReference: {fileID: 0}
    - target: {fileID: 416522, guid: bee8d047e16101c438fb33382ab66935, type: 3}
      propertyPath: m_LocalScale.y
      value: .542296767
      objectReference: {fileID: 0}
    - target: {fileID: 416522, guid: bee8d047e16101c438fb33382ab66935, type: 3}
      propertyPath: m_LocalScale.z
      value: .632384002
      objectReference: {fileID: 0}
    m_RemovedComponents: []
  m_SourcePrefab: {fileID: 100100000, guid: bee8d047e16101c438fb33382ab66935, type: 3}
--- !u!4 &847535060 stripped
Transform:
  m_CorrespondingSourceObject: {fileID: 416522, guid: bee8d047e16101c438fb33382ab66935, type: 3}
  m_PrefabInstance: {fileID: 847535059}
  m_PrefabAsset: {fileID: 0}
--- !u!1001 &878866455
PrefabInstance:
  m_ObjectHideFlags: 0
  serializedVersion: 2
  m_Modification:
    m_TransformParent: {fileID: 1075876286}
    m_Modifications:
    - target: {fileID: 408656, guid: 6a67aaef2f6b30443ac78ea7d762a346, type: 3}
      propertyPath: m_LocalPosition.x
      value: .755999982
      objectReference: {fileID: 0}
    - target: {fileID: 408656, guid: 6a67aaef2f6b30443ac78ea7d762a346, type: 3}
      propertyPath: m_LocalPosition.y
      value: -.175999999
      objectReference: {fileID: 0}
    - target: {fileID: 408656, guid: 6a67aaef2f6b30443ac78ea7d762a346, type: 3}
      propertyPath: m_LocalPosition.z
      value: -.150999993
      objectReference: {fileID: 0}
    - target: {fileID: 408656, guid: 6a67aaef2f6b30443ac78ea7d762a346, type: 3}
      propertyPath: m_LocalRotation.x
      value: 0
      objectReference: {fileID: 0}
    - target: {fileID: 408656, guid: 6a67aaef2f6b30443ac78ea7d762a346, type: 3}
      propertyPath: m_LocalRotation.y
      value: .604937553
      objectReference: {fileID: 0}
    - target: {fileID: 408656, guid: 6a67aaef2f6b30443ac78ea7d762a346, type: 3}
      propertyPath: m_LocalRotation.z
      value: 0
      objectReference: {fileID: 0}
    - target: {fileID: 408656, guid: 6a67aaef2f6b30443ac78ea7d762a346, type: 3}
      propertyPath: m_LocalRotation.w
      value: -.796272993
      objectReference: {fileID: 0}
    - target: {fileID: 408656, guid: 6a67aaef2f6b30443ac78ea7d762a346, type: 3}
      propertyPath: m_RootOrder
      value: 11
      objectReference: {fileID: 0}
    - target: {fileID: 408656, guid: 6a67aaef2f6b30443ac78ea7d762a346, type: 3}
      propertyPath: m_LocalScale.x
      value: .711159706
      objectReference: {fileID: 0}
    - target: {fileID: 408656, guid: 6a67aaef2f6b30443ac78ea7d762a346, type: 3}
      propertyPath: m_LocalScale.y
      value: .711159885
      objectReference: {fileID: 0}
    - target: {fileID: 408656, guid: 6a67aaef2f6b30443ac78ea7d762a346, type: 3}
      propertyPath: m_LocalScale.z
      value: .711159885
      objectReference: {fileID: 0}
    m_RemovedComponents: []
  m_SourcePrefab: {fileID: 100100000, guid: 6a67aaef2f6b30443ac78ea7d762a346, type: 3}
--- !u!4 &878866456 stripped
Transform:
  m_CorrespondingSourceObject: {fileID: 408656, guid: 6a67aaef2f6b30443ac78ea7d762a346, type: 3}
  m_PrefabInstance: {fileID: 878866455}
  m_PrefabAsset: {fileID: 0}
--- !u!1001 &904367615
PrefabInstance:
  m_ObjectHideFlags: 0
  serializedVersion: 2
  m_Modification:
    m_TransformParent: {fileID: 1075876286}
    m_Modifications:
    - target: {fileID: 457730, guid: 50673ce029549f04d8a30a3886523aad, type: 3}
      propertyPath: m_LocalPosition.z
      value: -.165000007
      objectReference: {fileID: 0}
    - target: {fileID: 496350, guid: 50673ce029549f04d8a30a3886523aad, type: 3}
      propertyPath: m_LocalPosition.x
      value: .735000014
      objectReference: {fileID: 0}
    - target: {fileID: 496350, guid: 50673ce029549f04d8a30a3886523aad, type: 3}
      propertyPath: m_LocalPosition.y
      value: -.275999993
      objectReference: {fileID: 0}
    - target: {fileID: 496350, guid: 50673ce029549f04d8a30a3886523aad, type: 3}
      propertyPath: m_LocalPosition.z
      value: -.451999992
      objectReference: {fileID: 0}
    - target: {fileID: 496350, guid: 50673ce029549f04d8a30a3886523aad, type: 3}
      propertyPath: m_LocalRotation.x
      value: 0
      objectReference: {fileID: 0}
    - target: {fileID: 496350, guid: 50673ce029549f04d8a30a3886523aad, type: 3}
      propertyPath: m_LocalRotation.y
      value: -.991461158
      objectReference: {fileID: 0}
    - target: {fileID: 496350, guid: 50673ce029549f04d8a30a3886523aad, type: 3}
      propertyPath: m_LocalRotation.z
      value: 0
      objectReference: {fileID: 0}
    - target: {fileID: 496350, guid: 50673ce029549f04d8a30a3886523aad, type: 3}
      propertyPath: m_LocalRotation.w
      value: -.130402595
      objectReference: {fileID: 0}
    - target: {fileID: 496350, guid: 50673ce029549f04d8a30a3886523aad, type: 3}
      propertyPath: m_RootOrder
      value: 10
      objectReference: {fileID: 0}
    - target: {fileID: 496350, guid: 50673ce029549f04d8a30a3886523aad, type: 3}
      propertyPath: m_LocalScale.x
      value: .555522501
      objectReference: {fileID: 0}
    - target: {fileID: 496350, guid: 50673ce029549f04d8a30a3886523aad, type: 3}
      propertyPath: m_LocalScale.y
      value: .555522561
      objectReference: {fileID: 0}
    - target: {fileID: 496350, guid: 50673ce029549f04d8a30a3886523aad, type: 3}
      propertyPath: m_LocalScale.z
      value: .555522561
      objectReference: {fileID: 0}
    m_RemovedComponents: []
  m_SourcePrefab: {fileID: 100100000, guid: 50673ce029549f04d8a30a3886523aad, type: 3}
--- !u!4 &904367616 stripped
Transform:
  m_CorrespondingSourceObject: {fileID: 496350, guid: 50673ce029549f04d8a30a3886523aad, type: 3}
  m_PrefabInstance: {fileID: 904367615}
  m_PrefabAsset: {fileID: 0}
--- !u!1 &1048220144
GameObject:
  m_ObjectHideFlags: 0
  m_CorrespondingSourceObject: {fileID: 0}
  m_PrefabInstance: {fileID: 0}
  m_PrefabAsset: {fileID: 0}
  serializedVersion: 6
  m_Component:
  - component: {fileID: 1048220145}
  - component: {fileID: 1048220149}
  - component: {fileID: 1048220148}
  - component: {fileID: 1048220146}
  m_Layer: 0
  m_Name: camera
  m_TagString: Untagged
  m_Icon: {fileID: 0}
  m_NavMeshLayer: 0
  m_StaticEditorFlags: 0
  m_IsActive: 1
--- !u!4 &1048220145
Transform:
  m_ObjectHideFlags: 0
  m_CorrespondingSourceObject: {fileID: 0}
  m_PrefabInstance: {fileID: 0}
  m_PrefabAsset: {fileID: 0}
  m_GameObject: {fileID: 1048220144}
  m_LocalRotation: {x: 0.24579759, y: 0.38268328, z: -0.106380954, w: 0.88420594}
  m_LocalPosition: {x: -4.31, y: 5.25, z: -4.87}
  m_LocalScale: {x: 1, y: 1, z: 1}
  m_Children: []
  m_Father: {fileID: 1603946219}
  m_RootOrder: 0
  m_LocalEulerAnglesHint: {x: 0, y: 0, z: 0}
--- !u!81 &1048220146
AudioListener:
  m_ObjectHideFlags: 0
  m_CorrespondingSourceObject: {fileID: 0}
  m_PrefabInstance: {fileID: 0}
  m_PrefabAsset: {fileID: 0}
  m_GameObject: {fileID: 1048220144}
  m_Enabled: 1
--- !u!124 &1048220148
Behaviour:
  m_ObjectHideFlags: 0
  m_CorrespondingSourceObject: {fileID: 0}
  m_PrefabInstance: {fileID: 0}
  m_PrefabAsset: {fileID: 0}
  m_GameObject: {fileID: 1048220144}
  m_Enabled: 1
--- !u!20 &1048220149
Camera:
  m_ObjectHideFlags: 0
  m_CorrespondingSourceObject: {fileID: 0}
  m_PrefabInstance: {fileID: 0}
  m_PrefabAsset: {fileID: 0}
  m_GameObject: {fileID: 1048220144}
  m_Enabled: 1
  serializedVersion: 2
  m_ClearFlags: 2
  m_BackGroundColor: {r: 0.10196078, g: 0.10196078, b: 0.10196078, a: 1}
  m_projectionMatrixMode: 1
  m_GateFitMode: 2
  m_FOVAxisMode: 0
  m_SensorSize: {x: 36, y: 24}
  m_LensShift: {x: 0, y: 0}
  m_FocalLength: 50
  m_NormalizedViewPortRect:
    serializedVersion: 2
    x: 0
    y: 0
    width: 1
    height: 1
  near clip plane: 0.3
  far clip plane: 1000
  field of view: 60
  orthographic: 0
  orthographic size: 5
  m_Depth: 0
  m_CullingMask:
    serializedVersion: 2
    m_Bits: 4294967295
  m_RenderingPath: -1
  m_TargetTexture: {fileID: 0}
  m_TargetDisplay: 0
  m_TargetEye: 3
  m_HDR: 0
  m_AllowMSAA: 1
  m_AllowDynamicResolution: 0
  m_ForceIntoRT: 0
  m_OcclusionCulling: 1
  m_StereoConvergence: 10
  m_StereoSeparation: 0.022
--- !u!1 &1075876285
GameObject:
  m_ObjectHideFlags: 0
  m_CorrespondingSourceObject: {fileID: 0}
  m_PrefabInstance: {fileID: 0}
  m_PrefabAsset: {fileID: 0}
  serializedVersion: 6
  m_Component:
  - component: {fileID: 1075876286}
  m_Layer: 0
  m_Name: rocks
  m_TagString: Untagged
  m_Icon: {fileID: 0}
  m_NavMeshLayer: 0
  m_StaticEditorFlags: 0
  m_IsActive: 1
--- !u!4 &1075876286
Transform:
  m_ObjectHideFlags: 0
  m_CorrespondingSourceObject: {fileID: 0}
  m_PrefabInstance: {fileID: 0}
  m_PrefabAsset: {fileID: 0}
  m_GameObject: {fileID: 1075876285}
  m_LocalRotation: {x: 0, y: 0, z: 0, w: 1}
  m_LocalPosition: {x: 0, y: 0, z: 0}
  m_LocalScale: {x: 1, y: 1, z: 1}
  m_Children:
  - {fileID: 347600058}
  - {fileID: 634951905}
  - {fileID: 1271289479}
  - {fileID: 752245350}
  - {fileID: 189451059}
  - {fileID: 1941949287}
  - {fileID: 847535060}
  - {fileID: 451578329}
  - {fileID: 165659579}
  - {fileID: 1244885296}
  - {fileID: 904367616}
  - {fileID: 878866456}
  - {fileID: 220698031}
  - {fileID: 1277015841}
  - {fileID: 322624551}
  - {fileID: 2129868576}
  m_Father: {fileID: 0}
  m_RootOrder: 1
  m_LocalEulerAnglesHint: {x: 0, y: 0, z: 0}
--- !u!1001 &1132393836
PrefabInstance:
  m_ObjectHideFlags: 0
  serializedVersion: 2
  m_Modification:
    m_TransformParent: {fileID: 1603946219}
    m_Modifications:
    - target: {fileID: 494650, guid: 9838f503122e261409e6efaf72c2a6b2, type: 3}
      propertyPath: m_LocalPosition.x
      value: 0
      objectReference: {fileID: 0}
    - target: {fileID: 494650, guid: 9838f503122e261409e6efaf72c2a6b2, type: 3}
      propertyPath: m_LocalPosition.y
      value: 0
      objectReference: {fileID: 0}
    - target: {fileID: 494650, guid: 9838f503122e261409e6efaf72c2a6b2, type: 3}
      propertyPath: m_LocalPosition.z
      value: 0
      objectReference: {fileID: 0}
    - target: {fileID: 494650, guid: 9838f503122e261409e6efaf72c2a6b2, type: 3}
      propertyPath: m_LocalRotation.x
      value: 0
      objectReference: {fileID: 0}
    - target: {fileID: 494650, guid: 9838f503122e261409e6efaf72c2a6b2, type: 3}
      propertyPath: m_LocalRotation.y
      value: 0
      objectReference: {fileID: 0}
    - target: {fileID: 494650, guid: 9838f503122e261409e6efaf72c2a6b2, type: 3}
      propertyPath: m_LocalRotation.z
      value: 0
      objectReference: {fileID: 0}
    - target: {fileID: 494650, guid: 9838f503122e261409e6efaf72c2a6b2, type: 3}
      propertyPath: m_LocalRotation.w
      value: 1
      objectReference: {fileID: 0}
    - target: {fileID: 494650, guid: 9838f503122e261409e6efaf72c2a6b2, type: 3}
      propertyPath: m_RootOrder
      value: 2
      objectReference: {fileID: 0}
    m_RemovedComponents: []
  m_SourcePrefab: {fileID: 100100000, guid: 9838f503122e261409e6efaf72c2a6b2, type: 3}
--- !u!4 &1132393837 stripped
Transform:
  m_CorrespondingSourceObject: {fileID: 494650, guid: 9838f503122e261409e6efaf72c2a6b2, type: 3}
  m_PrefabInstance: {fileID: 1132393836}
  m_PrefabAsset: {fileID: 0}
--- !u!1001 &1244885295
PrefabInstance:
  m_ObjectHideFlags: 0
  serializedVersion: 2
  m_Modification:
    m_TransformParent: {fileID: 1075876286}
    m_Modifications:
    - target: {fileID: 121022, guid: 1bbb9f65959851443977b14c98740663, type: 3}
      propertyPath: m_Name
      value: rock_d (1)
      objectReference: {fileID: 0}
    - target: {fileID: 448766, guid: 1bbb9f65959851443977b14c98740663, type: 3}
      propertyPath: m_LocalPosition.x
      value: .446999997
      objectReference: {fileID: 0}
    - target: {fileID: 448766, guid: 1bbb9f65959851443977b14c98740663, type: 3}
      propertyPath: m_LocalPosition.y
      value: -.187999994
      objectReference: {fileID: 0}
    - target: {fileID: 448766, guid: 1bbb9f65959851443977b14c98740663, type: 3}
      propertyPath: m_LocalPosition.z
      value: 1.19400001
      objectReference: {fileID: 0}
    - target: {fileID: 448766, guid: 1bbb9f65959851443977b14c98740663, type: 3}
      propertyPath: m_LocalRotation.x
      value: 0
      objectReference: {fileID: 0}
    - target: {fileID: 448766, guid: 1bbb9f65959851443977b14c98740663, type: 3}
      propertyPath: m_LocalRotation.y
      value: -.844833791
      objectReference: {fileID: 0}
    - target: {fileID: 448766, guid: 1bbb9f65959851443977b14c98740663, type: 3}
      propertyPath: m_LocalRotation.z
      value: 0
      objectReference: {fileID: 0}
    - target: {fileID: 448766, guid: 1bbb9f65959851443977b14c98740663, type: 3}
      propertyPath: m_LocalRotation.w
      value: -.535028934
      objectReference: {fileID: 0}
    - target: {fileID: 448766, guid: 1bbb9f65959851443977b14c98740663, type: 3}
      propertyPath: m_RootOrder
      value: 9
      objectReference: {fileID: 0}
    - target: {fileID: 448766, guid: 1bbb9f65959851443977b14c98740663, type: 3}
      propertyPath: m_LocalScale.y
      value: .843819976
      objectReference: {fileID: 0}
    m_RemovedComponents: []
  m_SourcePrefab: {fileID: 100100000, guid: 1bbb9f65959851443977b14c98740663, type: 3}
--- !u!4 &1244885296 stripped
Transform:
  m_CorrespondingSourceObject: {fileID: 448766, guid: 1bbb9f65959851443977b14c98740663, type: 3}
  m_PrefabInstance: {fileID: 1244885295}
  m_PrefabAsset: {fileID: 0}
--- !u!1001 &1271289478
PrefabInstance:
  m_ObjectHideFlags: 0
  serializedVersion: 2
  m_Modification:
    m_TransformParent: {fileID: 1075876286}
    m_Modifications:
    - target: {fileID: 430148, guid: 7505f79cb619cfd4ebb6af0704ad4260, type: 3}
      propertyPath: m_LocalPosition.x
      value: 2.11599994
      objectReference: {fileID: 0}
    - target: {fileID: 430148, guid: 7505f79cb619cfd4ebb6af0704ad4260, type: 3}
      propertyPath: m_LocalPosition.y
      value: 0
      objectReference: {fileID: 0}
    - target: {fileID: 430148, guid: 7505f79cb619cfd4ebb6af0704ad4260, type: 3}
      propertyPath: m_LocalPosition.z
      value: -1.71490002
      objectReference: {fileID: 0}
    - target: {fileID: 430148, guid: 7505f79cb619cfd4ebb6af0704ad4260, type: 3}
      propertyPath: m_LocalRotation.x
      value: 0
      objectReference: {fileID: 0}
    - target: {fileID: 430148, guid: 7505f79cb619cfd4ebb6af0704ad4260, type: 3}
      propertyPath: m_LocalRotation.y
      value: -.696344256
      objectReference: {fileID: 0}
    - target: {fileID: 430148, guid: 7505f79cb619cfd4ebb6af0704ad4260, type: 3}
      propertyPath: m_LocalRotation.z
      value: 0
      objectReference: {fileID: 0}
    - target: {fileID: 430148, guid: 7505f79cb619cfd4ebb6af0704ad4260, type: 3}
      propertyPath: m_LocalRotation.w
      value: -.717708051
      objectReference: {fileID: 0}
    - target: {fileID: 430148, guid: 7505f79cb619cfd4ebb6af0704ad4260, type: 3}
      propertyPath: m_RootOrder
      value: 2
      objectReference: {fileID: 0}
    - target: {fileID: 430148, guid: 7505f79cb619cfd4ebb6af0704ad4260, type: 3}
      propertyPath: m_LocalScale.x
      value: 1.29695523
      objectReference: {fileID: 0}
    - target: {fileID: 430148, guid: 7505f79cb619cfd4ebb6af0704ad4260, type: 3}
      propertyPath: m_LocalScale.y
      value: 1.11219549
      objectReference: {fileID: 0}
    - target: {fileID: 430148, guid: 7505f79cb619cfd4ebb6af0704ad4260, type: 3}
      propertyPath: m_LocalScale.z
      value: 1.11219597
      objectReference: {fileID: 0}
    m_RemovedComponents: []
  m_SourcePrefab: {fileID: 100100000, guid: 7505f79cb619cfd4ebb6af0704ad4260, type: 3}
--- !u!4 &1271289479 stripped
Transform:
  m_CorrespondingSourceObject: {fileID: 430148, guid: 7505f79cb619cfd4ebb6af0704ad4260, type: 3}
  m_PrefabInstance: {fileID: 1271289478}
  m_PrefabAsset: {fileID: 0}
--- !u!1001 &1277015840
PrefabInstance:
  m_ObjectHideFlags: 0
  serializedVersion: 2
  m_Modification:
    m_TransformParent: {fileID: 1075876286}
    m_Modifications:
    - target: {fileID: 440648, guid: 4436f5b141ae4074082424c09570acb3, type: 3}
      propertyPath: m_LocalPosition.x
      value: 2.6730001
      objectReference: {fileID: 0}
    - target: {fileID: 440648, guid: 4436f5b141ae4074082424c09570acb3, type: 3}
      propertyPath: m_LocalPosition.y
      value: 1.77699995
      objectReference: {fileID: 0}
    - target: {fileID: 440648, guid: 4436f5b141ae4074082424c09570acb3, type: 3}
      propertyPath: m_LocalPosition.z
      value: -.741999984
      objectReference: {fileID: 0}
    - target: {fileID: 440648, guid: 4436f5b141ae4074082424c09570acb3, type: 3}
      propertyPath: m_LocalRotation.x
      value: 0
      objectReference: {fileID: 0}
    - target: {fileID: 440648, guid: 4436f5b141ae4074082424c09570acb3, type: 3}
      propertyPath: m_LocalRotation.y
      value: -.991461158
      objectReference: {fileID: 0}
    - target: {fileID: 440648, guid: 4436f5b141ae4074082424c09570acb3, type: 3}
      propertyPath: m_LocalRotation.z
      value: 0
      objectReference: {fileID: 0}
    - target: {fileID: 440648, guid: 4436f5b141ae4074082424c09570acb3, type: 3}
      propertyPath: m_LocalRotation.w
      value: -.130402595
      objectReference: {fileID: 0}
    - target: {fileID: 440648, guid: 4436f5b141ae4074082424c09570acb3, type: 3}
      propertyPath: m_RootOrder
      value: 13
      objectReference: {fileID: 0}
    - target: {fileID: 440648, guid: 4436f5b141ae4074082424c09570acb3, type: 3}
      propertyPath: m_LocalScale.x
      value: .727075934
      objectReference: {fileID: 0}
    - target: {fileID: 440648, guid: 4436f5b141ae4074082424c09570acb3, type: 3}
      propertyPath: m_LocalScale.y
      value: .727075934
      objectReference: {fileID: 0}
    - target: {fileID: 440648, guid: 4436f5b141ae4074082424c09570acb3, type: 3}
      propertyPath: m_LocalScale.z
      value: .727075934
      objectReference: {fileID: 0}
    m_RemovedComponents: []
  m_SourcePrefab: {fileID: 100100000, guid: 4436f5b141ae4074082424c09570acb3, type: 3}
--- !u!4 &1277015841 stripped
Transform:
  m_CorrespondingSourceObject: {fileID: 440648, guid: 4436f5b141ae4074082424c09570acb3, type: 3}
  m_PrefabInstance: {fileID: 1277015840}
  m_PrefabAsset: {fileID: 0}
--- !u!1 &1603946218
GameObject:
  m_ObjectHideFlags: 0
  m_CorrespondingSourceObject: {fileID: 0}
  m_PrefabInstance: {fileID: 0}
  m_PrefabAsset: {fileID: 0}
  serializedVersion: 6
  m_Component:
  - component: {fileID: 1603946219}
  m_Layer: 0
  m_Name: environment
  m_TagString: Untagged
  m_Icon: {fileID: 0}
  m_NavMeshLayer: 0
  m_StaticEditorFlags: 0
  m_IsActive: 1
--- !u!4 &1603946219
Transform:
  m_ObjectHideFlags: 0
  m_CorrespondingSourceObject: {fileID: 0}
  m_PrefabInstance: {fileID: 0}
  m_PrefabAsset: {fileID: 0}
  m_GameObject: {fileID: 1603946218}
  m_LocalRotation: {x: 0, y: 0, z: 0, w: 1}
  m_LocalPosition: {x: 0, y: 0, z: 0}
  m_LocalScale: {x: 1, y: 1, z: 1}
  m_Children:
  - {fileID: 1048220145}
  - {fileID: 359757807}
  - {fileID: 1132393837}
  - {fileID: 1817476846}
  m_Father: {fileID: 0}
  m_RootOrder: 0
  m_LocalEulerAnglesHint: {x: 0, y: 0, z: 0}
--- !u!1 &1817476845
GameObject:
  m_ObjectHideFlags: 0
  m_CorrespondingSourceObject: {fileID: 0}
  m_PrefabInstance: {fileID: 0}
  m_PrefabAsset: {fileID: 0}
  serializedVersion: 6
  m_Component:
  - component: {fileID: 1817476846}
  - component: {fileID: 1817476847}
  m_Layer: 0
  m_Name: Point light
  m_TagString: Untagged
  m_Icon: {fileID: 0}
  m_NavMeshLayer: 0
  m_StaticEditorFlags: 4294967295
  m_IsActive: 1
--- !u!4 &1817476846
Transform:
  m_ObjectHideFlags: 0
  m_CorrespondingSourceObject: {fileID: 0}
  m_PrefabInstance: {fileID: 0}
  m_PrefabAsset: {fileID: 0}
  m_GameObject: {fileID: 1817476845}
  m_LocalRotation: {x: 0, y: 0, z: 0, w: 1}
  m_LocalPosition: {x: 0.27, y: 1.87, z: -0.23}
  m_LocalScale: {x: 1, y: 1, z: 1}
  m_Children: []
  m_Father: {fileID: 1603946219}
  m_RootOrder: 3
  m_LocalEulerAnglesHint: {x: 0, y: 0, z: 0}
--- !u!108 &1817476847
Light:
  m_ObjectHideFlags: 0
  m_CorrespondingSourceObject: {fileID: 0}
  m_PrefabInstance: {fileID: 0}
  m_PrefabAsset: {fileID: 0}
  m_GameObject: {fileID: 1817476845}
  m_Enabled: 1
  serializedVersion: 10
  m_Type: 2
  m_Shape: 0
  m_Color: {r: 0.76816607, g: 0.85294116, b: 0.63343424, a: 1}
  m_Intensity: 0.52
  m_Range: 8.975147
  m_SpotAngle: 30
  m_InnerSpotAngle: 21.80208
  m_CookieSize: 10
  m_Shadows:
    m_Type: 0
    m_Resolution: -1
    m_CustomResolution: -1
    m_Strength: 1
    m_Bias: 0.05
    m_NormalBias: 0.4
    m_NearPlane: 0.2
    m_CullingMatrixOverride:
      e00: 1
      e01: 0
      e02: 0
      e03: 0
      e10: 0
      e11: 1
      e12: 0
      e13: 0
      e20: 0
      e21: 0
      e22: 1
      e23: 0
      e30: 0
      e31: 0
      e32: 0
      e33: 1
    m_UseCullingMatrixOverride: 0
  m_Cookie: {fileID: 0}
  m_DrawHalo: 0
  m_Flare: {fileID: 0}
  m_RenderMode: 0
  m_CullingMask:
    serializedVersion: 2
    m_Bits: 4294967295
  m_RenderingLayerMask: 1
  m_Lightmapping: 4
  m_LightShadowCasterMode: 0
  m_AreaSize: {x: 1, y: 1}
  m_BounceIntensity: 0
  m_ColorTemperature: 6570
  m_UseColorTemperature: 0
  m_BoundingSphereOverride: {x: 0, y: 0, z: 0, w: 0}
  m_UseBoundingSphereOverride: 0
  m_ShadowRadius: 0
  m_ShadowAngle: 0
--- !u!1001 &1941949286
PrefabInstance:
  m_ObjectHideFlags: 0
  serializedVersion: 2
  m_Modification:
    m_TransformParent: {fileID: 1075876286}
    m_Modifications:
    - target: {fileID: 448766, guid: 1bbb9f65959851443977b14c98740663, type: 3}
      propertyPath: m_LocalPosition.x
      value: 2.2019999
      objectReference: {fileID: 0}
    - target: {fileID: 448766, guid: 1bbb9f65959851443977b14c98740663, type: 3}
      propertyPath: m_LocalPosition.y
      value: 1.42200005
      objectReference: {fileID: 0}
    - target: {fileID: 448766, guid: 1bbb9f65959851443977b14c98740663, type: 3}
      propertyPath: m_LocalPosition.z
      value: .861109972
      objectReference: {fileID: 0}
    - target: {fileID: 448766, guid: 1bbb9f65959851443977b14c98740663, type: 3}
      propertyPath: m_LocalRotation.x
      value: 0
      objectReference: {fileID: 0}
    - target: {fileID: 448766, guid: 1bbb9f65959851443977b14c98740663, type: 3}
      propertyPath: m_LocalRotation.y
      value: -.876271188
      objectReference: {fileID: 0}
    - target: {fileID: 448766, guid: 1bbb9f65959851443977b14c98740663, type: 3}
      propertyPath: m_LocalRotation.z
      value: 0
      objectReference: {fileID: 0}
    - target: {fileID: 448766, guid: 1bbb9f65959851443977b14c98740663, type: 3}
      propertyPath: m_LocalRotation.w
      value: -.481818318
      objectReference: {fileID: 0}
    - target: {fileID: 448766, guid: 1bbb9f65959851443977b14c98740663, type: 3}
      propertyPath: m_RootOrder
      value: 5
      objectReference: {fileID: 0}
    - target: {fileID: 448766, guid: 1bbb9f65959851443977b14c98740663, type: 3}
      propertyPath: m_LocalScale.x
      value: 1.50270128
      objectReference: {fileID: 0}
    - target: {fileID: 448766, guid: 1bbb9f65959851443977b14c98740663, type: 3}
      propertyPath: m_LocalScale.y
      value: 1.06076884
      objectReference: {fileID: 0}
    - target: {fileID: 448766, guid: 1bbb9f65959851443977b14c98740663, type: 3}
      propertyPath: m_LocalScale.z
      value: 1.75233293
      objectReference: {fileID: 0}
    m_RemovedComponents: []
  m_SourcePrefab: {fileID: 100100000, guid: 1bbb9f65959851443977b14c98740663, type: 3}
--- !u!4 &1941949287 stripped
Transform:
  m_CorrespondingSourceObject: {fileID: 448766, guid: 1bbb9f65959851443977b14c98740663, type: 3}
  m_PrefabInstance: {fileID: 1941949286}
  m_PrefabAsset: {fileID: 0}
--- !u!1001 &2129868575
PrefabInstance:
  m_ObjectHideFlags: 0
  serializedVersion: 2
  m_Modification:
    m_TransformParent: {fileID: 1075876286}
    m_Modifications:
    - target: {fileID: 422286, guid: 1643ab6b0160ab240a595db4bfb21c56, type: 3}
      propertyPath: m_LocalPosition.x
      value: 1.48199999
      objectReference: {fileID: 0}
    - target: {fileID: 422286, guid: 1643ab6b0160ab240a595db4bfb21c56, type: 3}
      propertyPath: m_LocalPosition.y
      value: -.314999998
      objectReference: {fileID: 0}
    - target: {fileID: 422286, guid: 1643ab6b0160ab240a595db4bfb21c56, type: 3}
      propertyPath: m_LocalPosition.z
      value: -1.63699996
      objectReference: {fileID: 0}
    - target: {fileID: 422286, guid: 1643ab6b0160ab240a595db4bfb21c56, type: 3}
      propertyPath: m_LocalRotation.x
      value: 0
      objectReference: {fileID: 0}
    - target: {fileID: 422286, guid: 1643ab6b0160ab240a595db4bfb21c56, type: 3}
      propertyPath: m_LocalRotation.y
      value: -.758018315
      objectReference: {fileID: 0}
    - target: {fileID: 422286, guid: 1643ab6b0160ab240a595db4bfb21c56, type: 3}
      propertyPath: m_LocalRotation.z
      value: 0
      objectReference: {fileID: 0}
    - target: {fileID: 422286, guid: 1643ab6b0160ab240a595db4bfb21c56, type: 3}
      propertyPath: m_LocalRotation.w
      value: -.652233243
      objectReference: {fileID: 0}
    - target: {fileID: 422286, guid: 1643ab6b0160ab240a595db4bfb21c56, type: 3}
      propertyPath: m_RootOrder
      value: 15
      objectReference: {fileID: 0}
    m_RemovedComponents: []
  m_SourcePrefab: {fileID: 100100000, guid: 1643ab6b0160ab240a595db4bfb21c56, type: 3}
--- !u!4 &2129868576 stripped
Transform:
  m_CorrespondingSourceObject: {fileID: 422286, guid: 1643ab6b0160ab240a595db4bfb21c56, type: 3}
  m_PrefabInstance: {fileID: 2129868575}
  m_PrefabAsset: {fileID: 0}
